# 3ds Max Wavefront OBJ Exporter v0.97b - (c)2007 guruware
# File Created: 07.05.2015 22:31:27

mtllib Rock_2.mtl

#
# object Rock_2
#

v  -0.2954 1.8800 -1.3685
v  -0.1611 0.5640 -1.2060
v  -0.6983 1.5577 -1.5019
v  -1.0743 1.7457 -1.2366
v  -0.7789 2.3366 -1.2682
v  -0.1074 2.9811 -1.2907
v  0.2417 -0.5806 -0.7520
v  -0.3914 0.6714 -0.9668
v  -1.2103 1.5577 -1.0474
v  0.4566 1.5040 -0.7681
v  -1.1275 2.5783 -0.8057
v  -0.6177 3.1960 -0.7583
v  0.4029 3.7868 -1.1286
v  0.6714 1.4503 -0.6569
v  -0.7888 0.2954 -0.4566
v  0.6180 3.3840 -0.8863
v  0.9668 2.5245 -0.3415
v  -0.0269 3.7918 -0.8863
v  0.4029 4.7799 -0.3223
v  0.6182 0.2149 -0.6446
v  0.4297 -0.7115 -0.6177
v  -1.2899 1.4234 -0.6446
v  -1.2611 1.9068 -0.3223
v  0.7690 3.4108 0.0537
v  0.6243 3.6525 -0.2686
v  -0.1980 4.4021 -0.3632
v  -0.4029 0.2417 -0.0814
v  -0.8057 0.3134 -0.2686
v  0.8739 1.3697 -0.4834
v  0.7201 0.0806 -0.1880
v  -1.2229 1.7457 -0.1880
v  -1.0031 3.3840 -0.3491
v  0.4566 -0.6446 -0.2133
v  -1.3001 0.9668 0.0806
v  0.6045 4.2702 0.0269
v  -0.3760 4.5340 -0.1903
v  0.0088 5.2102 0.2434
v  -0.1528 -0.1074 0.0537
v  -0.9405 0.2417 -0.0537
v  -1.2698 1.3966 0.2954
v  -1.0249 2.5245 0.2954
v  1.0925 2.5514 -0.0537
v  0.9162 0.7789 0.4297
v  1.1031 2.3097 0.2417
v  -0.8558 4.1897 0.1353
v  0.3223 5.1637 0.0537
v  0.0000 -0.3760 0.4566
v  0.4029 -0.1343 0.1847
v  0.8144 0.2417 0.3760
v  0.9668 2.4977 0.3693
v  0.7392 3.1960 0.3223
v  -0.9158 3.3034 0.4029
v  0.4566 4.5388 0.3344
v  -0.4566 5.0196 0.4834
v  -0.6177 0.0977 0.3223
v  -0.9668 0.6503 0.4297
v  -0.3491 -0.1882 0.6446
v  0.8842 1.9606 0.3491
v  -1.0528 2.5245 0.6446
v  0.5640 2.5783 1.2165
v  0.7581 3.0348 0.9131
v  -0.9048 3.8405 0.7520
v  -0.6446 4.8132 0.5640
v  0.2149 2.7931 1.3163
v  0.6446 0.5371 0.6682
v  0.2149 0.7545 0.7251
v  -0.3223 0.5371 0.8616
v  -0.8057 2.1217 0.8376
v  -1.0872 1.4503 0.5371
v  0.1074 3.7063 0.7725
v  -0.5103 3.7063 1.1138
v  -0.7789 4.0823 1.0231
v  0.4029 1.6651 1.1322
v  0.6177 1.5308 0.9260
v  -0.9659 3.3034 0.9400
v  -0.3760 1.4503 1.0472
v  0.0537 1.2891 1.0167
v  -0.2149 2.2023 1.1516
v  0.4297 2.1486 1.2620
# 79 vertices

vn 0.4581 -0.0267 -0.8885
vn 0.1075 -0.2904 -0.9509
vn -0.2216 -0.1651 -0.9611
vn -0.7118 0.0555 -0.7002
vn -0.4896 0.3326 -0.8061
vn 0.0149 0.1984 -0.9800
vn -0.2040 -0.7493 -0.6300
vn -0.6444 -0.5160 -0.5644
vn -0.8664 -0.1808 -0.4655
vn 0.5135 -0.0744 -0.8548
vn -0.8496 0.3243 -0.4159
vn -0.5749 0.4744 -0.6667
vn 0.3374 0.3934 -0.8552
vn 0.5774 -0.0379 -0.8156
vn -0.7394 -0.5927 -0.3194
vn 0.8726 0.1023 -0.4776
vn 0.8954 0.0671 -0.4402
vn -0.4898 0.4688 -0.7351
vn 0.4574 0.6331 -0.6245
vn 0.7909 -0.1399 -0.5957
vn 0.2662 -0.8938 -0.3609
vn -0.9747 -0.1454 -0.1698
vn -0.9790 0.1054 0.1744
vn 0.9655 0.2569 0.0423
vn 0.9719 0.1819 -0.1492
vn -0.3945 0.5294 -0.7511
vn -0.4402 -0.8977 -0.0194
vn -0.6577 -0.7351 -0.1643
vn 0.9233 -0.0591 -0.3795
vn 0.9593 -0.2367 -0.1538
vn -0.9834 0.1231 0.1336
vn -0.8638 0.3682 -0.3438
vn 0.3086 -0.9150 0.2597
vn -0.9505 -0.2862 0.1211
vn 0.9742 0.2231 0.0333
vn -0.5186 0.5441 -0.6596
vn -0.0242 0.9824 0.1854
vn -0.7615 -0.6376 -0.1164
vn -0.6415 -0.7437 -0.1884
vn -0.9388 -0.0087 0.3445
vn -0.9860 0.1635 0.0321
vn 0.9757 0.1832 -0.1202
vn 0.9432 -0.1395 0.3016
vn 0.9259 0.0205 0.3771
vn -0.8980 0.3443 -0.2739
vn 0.4490 0.8859 -0.1163
vn -0.0521 -0.8837 0.4652
vn 0.4704 -0.5688 0.6747
vn 0.7714 -0.4620 0.4375
vn 0.9040 0.1194 0.4104
vn 0.9488 0.2614 0.1773
vn -0.9904 0.1292 -0.0491
vn 0.7237 0.3515 0.5939
vn -0.3474 0.8723 0.3441
vn -0.6326 -0.7714 -0.0696
vn -0.7240 -0.3389 0.6009
vn -0.3501 -0.7203 0.5988
vn 0.6972 -0.0083 0.7169
vn -0.9482 0.0267 0.3166
vn 0.6411 0.0518 0.7657
vn 0.7893 0.2922 0.5400
vn -0.9159 0.2335 0.3265
vn -0.7344 0.6182 0.2802
vn 0.0953 0.1806 0.9789
vn 0.4244 -0.3261 0.8447
vn 0.1444 -0.3424 0.9284
vn -0.1433 -0.2711 0.9518
vn -0.6385 -0.1264 0.7592
vn -0.6596 -0.1375 0.7390
vn 0.3647 0.3853 0.8476
vn 0.0227 0.2120 0.9770
vn -0.5168 0.3859 0.7642
vn 0.2855 -0.2859 0.9147
vn 0.7526 -0.1548 0.6400
vn -0.8206 0.0386 0.5702
vn -0.3370 -0.1734 0.9254
vn 0.0830 -0.2971 0.9512
vn -0.2545 -0.1000 0.9619
vn 0.2971 -0.1697 0.9396
# 79 vertex normals

vt 0.3765 0.5993 0.0000
vt 0.2318 0.5735 0.0000
vt 0.3576 0.5402 0.0000
vt 0.4057 0.5132 0.0000
vt 0.4452 0.5715 0.0000
vt 0.4824 0.6655 0.0000
vt 0.0898 0.5923 0.0000
vt 0.2383 0.5390 0.0000
vt 0.4071 0.4851 0.0000
vt 0.3008 0.6862 0.0000
vt 0.5048 0.5404 0.0000
vt 0.5487 0.6143 0.0000
vt 0.5509 0.7514 0.0000
vt 0.2868 0.7089 0.0000
vt 0.3184 0.3544 0.0000
vt 0.4947 0.7675 0.0000
vt 0.3798 0.7955 0.0000
vt 0.5764 0.7030 0.0000
vt 0.6218 0.8777 0.0000
vt 0.1592 0.6598 0.0000
vt 0.0661 0.6127 0.0000
vt 0.1891 0.4737 0.0000
vt 0.4233 0.4445 0.0000
vt 0.4873 0.4514 0.0000
vt 0.4600 0.8686 0.0000
vt 0.4995 0.8425 0.0000
vt 0.6741 0.6929 0.0000
vt 0.6951 0.7686 0.0000
vt 0.0573 0.5934 0.0000
vt 0.1341 0.4632 0.0000
vt 0.1809 0.4567 0.0000
vt 0.2686 0.7320 0.0000
vt 0.1243 0.7003 0.0000
vt 0.3362 0.3353 0.0000
vt 0.4838 0.4308 0.0000
vt 0.5998 0.5732 0.0000
vt 0.0509 0.6570 0.0000
vt 0.4384 0.3508 0.0000
vt 0.5520 0.8966 0.0000
vt 0.7033 0.6736 0.0000
vt 0.7740 0.7327 0.0000
vt 0.0317 0.5532 0.0000
vt 0.0881 0.4774 0.0000
vt 0.1761 0.4237 0.0000
vt 0.3832 0.2784 0.0000
vt 0.3581 0.2934 0.0000
vt 0.4903 0.3679 0.0000
vt 0.5832 0.4568 0.0000
vt 0.3704 0.8224 0.0000
vt 0.1677 0.7997 0.0000
vt 0.3353 0.8390 0.0000
vt 0.7014 0.6007 0.0000
vt 0.6491 0.9325 0.0000
vt 0.7559 0.7654 0.0000
vt 0.4418 0.1197 0.0000
vt 0.4415 0.0242 0.0000
vt 0.4869 0.0796 0.0000
vt 0.0353 0.4571 0.0000
vt 0.1141 0.7655 0.0000
vt 0.3490 0.8654 0.0000
vt 0.4274 0.8909 0.0000
vt 0.6552 0.5096 0.0000
vt 0.5721 0.9373 0.0000
vt 0.7891 0.6642 0.0000
vt 0.5523 0.0819 0.0000
vt 0.1149 0.4159 0.0000
vt 0.4528 0.2874 0.0000
vt 0.4099 0.2279 0.0000
vt 0.0579 0.4130 0.0000
vt 0.4236 0.1733 0.0000
vt 0.2910 0.8473 0.0000
vt 0.6082 0.4302 0.0000
vt 0.3220 0.9662 0.0000
vt 0.3863 0.9456 0.0000
vt 0.7271 0.5247 0.0000
vt 0.7814 0.6291 0.0000
vt 0.7447 0.2844 0.0000
vt 0.8081 0.3023 0.0000
vt 0.7340 0.3305 0.0000
vt 0.5679 0.1289 0.0000
vt 0.5573 0.1804 0.0000
vt 0.5044 0.2181 0.0000
vt 0.4360 0.1696 0.0000
vt 0.6095 0.1054 0.0000
vt 0.6008 0.3743 0.0000
vt 0.5172 0.3515 0.0000
vt 0.8219 0.4061 0.0000
vt 0.9291 0.4408 0.0000
vt 0.7602 0.4537 0.0000
vt 0.8848 0.5487 0.0000
vt 0.8496 0.5467 0.0000
vt 0.7742 0.4948 0.0000
vt 0.9735 0.5018 0.0000
vt 0.9466 0.5279 0.0000
vt 0.6543 0.2358 0.0000
vt 0.6571 0.1997 0.0000
vt 0.2213 0.8943 0.0000
vt 0.6889 0.4762 0.0000
vt 0.5821 0.2863 0.0000
vt 0.5964 0.2378 0.0000
vt 0.6543 0.3275 0.0000
vt 0.6974 0.2689 0.0000
# 102 texture coords

g Rock_2
usemtl VoxMtl
s 1
f 1/1/1 2/2/2 3/3/3 
f 4/4/4 5/5/5 3/3/3 
f 3/3/3 5/5/5 6/6/6 
f 3/3/3 6/6/6 1/1/1 
f 3/3/3 7/7/7 8/8/8 
f 7/7/7 3/3/3 2/2/2 
f 9/9/9 4/4/4 3/3/3 
f 10/10/10 1/1/1 6/6/6 
f 11/11/11 5/5/5 4/4/4 
f 11/11/11 12/12/12 5/5/5 
f 13/13/13 14/14/14 6/6/6 
f 9/9/9 3/3/3 15/15/15 
f 9/9/9 11/11/11 4/4/4 
f 6/6/6 14/14/14 10/10/10 
f 1/1/1 10/10/10 2/2/2 
f 16/16/16 17/17/17 14/14/14 
f 13/13/13 16/16/16 14/14/14 
f 5/5/5 12/12/12 18/18/18 
f 5/5/5 18/18/18 6/6/6 
f 13/13/13 6/6/6 18/18/18 
f 16/16/16 13/13/13 19/19/19 
f 20/20/20 21/21/21 7/7/7 
f 20/20/20 7/7/7 2/2/2 
f 15/22/15 3/3/3 8/8/8 
f 8/8/8 7/7/7 15/22/15 
f 20/20/20 10/10/10 14/14/14 
f 10/10/10 20/20/20 2/2/2 
f 15/15/15 22/23/22 9/9/9 
f 23/24/23 9/9/9 22/23/22 
f 24/25/24 16/16/16 25/26/25 
f 26/27/26 18/18/18 12/12/12 
f 13/13/13 26/27/26 19/28/19 
f 13/13/13 18/18/18 26/27/26 
f 7/7/7 21/29/21 27/30/27 
f 27/30/27 28/31/28 7/7/7 
f 29/32/29 30/33/30 20/20/20 
f 20/20/20 30/33/30 21/21/21 
f 15/22/15 7/7/7 28/31/28 
f 28/34/28 22/23/22 15/15/15 
f 29/32/29 20/20/20 14/14/14 
f 22/23/22 31/35/31 23/24/23 
f 17/17/17 29/32/29 14/14/14 
f 9/9/9 23/24/23 11/11/11 
f 32/36/32 11/11/11 23/24/23 
f 11/11/11 32/36/32 12/12/12 
f 30/33/30 33/37/33 21/21/21 
f 22/23/22 28/34/28 34/38/34 
f 29/32/29 17/17/17 30/33/30 
f 31/35/31 32/36/32 23/24/23 
f 16/16/16 35/39/35 25/26/25 
f 36/40/36 26/27/26 12/12/12 
f 19/19/19 35/39/35 16/16/16 
f 19/28/19 26/27/26 37/41/37 
f 21/29/21 33/42/33 38/43/38 
f 39/44/39 28/31/28 27/30/27 
f 39/45/39 34/38/34 28/46/28 
f 22/23/22 34/38/34 40/47/40 
f 31/35/31 41/48/41 32/36/32 
f 17/17/17 42/49/42 30/33/30 
f 43/50/43 42/49/42 44/51/44 
f 17/17/17 24/25/24 42/49/42 
f 16/16/16 24/25/24 17/17/17 
f 35/39/35 24/25/24 25/26/25 
f 32/36/32 45/52/45 12/12/12 
f 12/12/12 45/52/45 36/40/36 
f 36/40/36 37/41/37 26/27/26 
f 35/39/35 19/19/19 46/53/46 
f 37/41/37 46/54/46 19/28/19 
f 47/55/47 33/56/33 48/57/48 
f 33/42/33 47/58/47 38/43/38 
f 38/43/38 27/30/27 21/29/21 
f 30/33/30 49/59/49 33/37/33 
f 38/43/38 47/58/47 27/30/27 
f 49/59/49 30/33/30 43/50/43 
f 42/49/42 43/50/43 30/33/30 
f 40/47/40 31/35/31 22/23/22 
f 41/48/41 31/35/31 40/47/40 
f 50/60/50 44/51/44 42/49/42 
f 42/49/42 51/61/51 50/60/50 
f 24/25/24 51/61/51 42/49/42 
f 45/52/45 32/36/32 52/62/52 
f 51/61/51 24/25/24 35/39/35 
f 35/39/35 53/63/53 51/61/51 
f 45/52/45 54/64/54 36/40/36 
f 54/64/54 37/41/37 36/40/36 
f 53/63/53 35/39/35 46/53/46 
f 48/57/48 33/56/33 49/65/49 
f 27/30/27 55/66/55 39/44/39 
f 56/67/56 39/45/39 55/68/55 
f 47/58/47 55/66/55 27/30/27 
f 47/58/47 57/69/57 55/66/55 
f 55/68/55 57/70/57 56/67/56 
f 34/38/34 39/45/39 56/67/56 
f 34/38/34 56/67/56 40/47/40 
f 43/50/43 44/51/44 58/71/58 
f 59/72/59 41/48/41 40/47/40 
f 44/51/44 50/60/50 58/71/58 
f 60/73/60 50/60/50 61/74/61 
f 50/60/50 51/61/51 61/74/61 
f 52/62/52 32/36/32 41/48/41 
f 51/61/51 53/63/53 61/74/61 
f 62/75/62 45/52/45 52/62/52 
f 63/76/63 45/52/45 62/75/62 
f 60/77/60 61/78/61 64/79/64 
f 65/80/65 47/55/47 48/57/48 
f 47/55/47 65/80/65 66/81/66 
f 48/57/48 49/65/49 65/80/65 
f 67/82/67 56/67/56 57/83/57 
f 43/84/43 65/80/65 49/65/49 
f 56/67/56 67/82/67 68/85/68 
f 69/86/69 40/47/40 56/67/56 
f 68/85/68 69/86/69 56/67/56 
f 69/86/69 59/72/59 40/47/40 
f 59/72/59 69/86/69 68/85/68 
f 62/75/62 52/62/52 41/48/41 
f 70/87/70 61/78/61 53/88/53 
f 70/87/70 53/88/53 71/89/71 
f 63/76/63 54/64/54 45/52/45 
f 54/90/54 63/91/63 72/92/72 
f 53/88/53 46/93/46 37/94/37 
f 66/81/66 57/83/57 47/55/47 
f 57/83/57 66/81/66 67/82/67 
f 73/95/73 66/81/66 65/80/65 
f 73/95/73 65/80/65 43/84/43 
f 43/84/43 74/96/74 73/95/73 
f 43/50/43 58/71/58 74/97/74 
f 74/97/74 58/71/58 60/73/60 
f 50/60/50 60/73/60 58/71/58 
f 75/98/75 59/72/59 68/85/68 
f 75/98/75 41/48/41 59/72/59 
f 41/48/41 75/98/75 62/75/62 
f 63/91/63 62/75/62 75/98/75 
f 53/88/53 72/92/72 71/89/71 
f 72/92/72 53/88/53 54/90/54 
f 68/85/68 67/82/67 76/99/76 
f 67/82/67 77/100/77 76/99/76 
f 77/100/77 67/82/67 66/81/66 
f 77/100/77 78/101/78 76/99/76 
f 66/81/66 73/95/73 77/100/77 
f 77/100/77 79/102/79 78/101/78 
f 75/98/75 68/85/68 76/99/76 
f 76/99/76 78/101/78 75/98/75 
f 71/89/71 72/92/72 75/98/75 
f 61/78/61 70/87/70 64/79/64 
f 70/87/70 71/89/71 64/79/64 
f 72/92/72 63/91/63 75/98/75 
f 79/102/79 77/100/77 73/95/73 
f 79/102/79 73/95/73 74/96/74 
f 79/102/79 74/96/74 60/77/60 
f 64/79/64 78/101/78 79/102/79 
f 60/77/60 64/79/64 79/102/79 
f 64/79/64 75/98/75 78/101/78 
f 75/98/75 64/79/64 71/89/71 
f 53/88/53 37/94/37 54/90/54 
# 154 faces

